…
Para ordenar los jugadores por cantidad de goles vamos a tener que contar cuantas veces aparece cada jugador en la columna `Player Name`. La primera solucion que Juan Cruz propuso fue usar `group_by` y `summarise` para contar cuantas veces aparece cada jugador y por ende cuantos goles hizo.  Luego usamos `arrange` y `desc` para ordenar de mayor a menor.

``` r 

goleadores %>% 
  filter(str_detect(Event,"G")) %>% 
  group_by(`Player Name`) %>% 
  summarise(goles = n()) %>% 
  arrange(desc(n))

# A tibble: 1,187 × 2
   `Player Name`                          n
   <chr>                              <int>
 1 KLOSE                                 17
 2 RONALDO                               16
 3 Gerd MUELLER                          13
 4 Just FONTAINE                         13
 5 PEL� (Edson Arantes do Nascimento)    12
 6 M�LLER                                11
 7 Sandor KOCSIS                         11
 8 Grzegorz LATO                         10
 9 Helmut RAHN                           10
10 JAIRZINHO                              9
# ℹ 1,177 more rows
# ℹ Use `print(n = ...)` to see more rows  
```
…
