…
La clase pasada nos quedo de tarea contestar la pregunta de cuantos goles metieron los jugadores en el segundo tiempo.  Vamos a resolver esa pregunta paso a paso. 

> ## Ejercicio 2: Jugadores que metieron goles en el segundo tiempo.

La clase pasada generamos un conjunto de datos con todos los goles que se metieron en el mundial.  Vamos a usar esos datos para resolver la pregunta.  Primero vamos a cargar los datos y a ver como se ven.

``` r
goleadores <- jugadores %>% 
  separate_longer_delim(Event, delim = " ")

goleadores %>% select(`Player Name`, Event)
# A tibble: 39,419 × 2
   `Player Name`    Event
   <chr>            <chr>
 1 Alex THEPOT      NA   
 2 Oscar BONFIGLIO  NA   
 3 Marcel LANGILLER G40' 
 4 Juan CARRENO     G70' 
 5 Ernest LIBERATI  NA   
 6 Rafael GARZA     NA   
 7 Andre MASCHINOT  G43' 
 8 Andre MASCHINOT  G87' 
 9 Hilario LOPEZ    NA   
10 Etienne MATTLER  NA   
# ℹ 39,409 more rows
# ℹ Use `print(n = ...)` to see more rows
…
Para poder contestar la pregunta necesitamos saber cuando se metieron los goles. Esa informacion esta al lado de la letra G, asi que necesitamos poder tener los minutos en otra columna para luego poder filtrar.

Vamos a usar la funcion `mutate` para crear una nueva columna llamada `minutes` que va a tener el minuto en el que se metio el gol.  Para eso vamos a usar la funcion `parse_number` de readr que permite extraer el numero del string. 

> En el siguiente codigo seleccionamos solo las columnas que nos interesan para ver mejor el resultado del mutate.

``` r
goleadores %>% 
    filter(str_detect(Event,"G")) %>%
    mutate(minutes = parse_number(Event)) %>% 
    select(`Player Name`, Event, minutes)

# A tibble: 2,194 × 3
   `Player Name`    Event minutes
   <chr>            <chr>   <dbl>
 1 Marcel LANGILLER G40'       40
 2 Juan CARRENO     G70'       70
 3 Andre MASCHINOT  G43'       43
 4 Andre MASCHINOT  G87'       87
 5 Lucien LAURENT   G19'       19
 6 Tom FLORIE       G45'       45
 7 Bart McGHEE      G23'       23
 8 Bert PATENAUDE   G69'       69
 9 Ivica BEK        G30'       30
10 PREGUINHO        G62'       62
# ℹ 2,184 more rows
# ℹ Use `print(n = ...)` to see more rows
```

Ahora que tenemos los minutos en una columna podemos filtrar los goles que se metieron en el segundo tiempo.  Para eso vamos a usar la funcion `filter` de dplyr y la funcion `between` que nos permite filtrar los valores que estan entre dos numeros.  

un partido de futbol tiene dos tiempos de 45 minutos cada uno, asi que los minutos del segundo tiempo estan entre 45 y 90.  En algunos mundiales hay alargue, que va del minuto 91 en adelante. Vamos a filtrar los goles que se metieron en el segundo tiempo y a contar cuantos goles metio cada jugador. Finalmente vamos a ordenarlos de mayor a menor.

``` r
goleadores %>% 
  filter(str_detect(Event,"G")) %>%
  mutate(minutes = parse_number(Event)) %>% 
  filter(minutes > 45, minutes < 90) %>%
  count(`Player Name`) %>%
  arrange(desc(n))

# A tibble: 778 × 2
   `Player Name`                          n
   <chr>                              <int>
 1 RONALDO                               11
 2 PEL� (Edson Arantes do Nascimento)     8
 3 Uwe SEELER                             8
 4 JAIRZINHO                              7
 5 KLOSE                                  7
 6 SNEIJDER                               7
 7 Teofilo CUBILLAS                       7
 8 Diego MARADONA                         6
 9 Helmut RAHN                            6
10 Just FONTAINE                          6
# ℹ 768 more rows
# ℹ Use `print(n = ...)` to see more rows  
```
…
